Project 2 Post Exploration
…
colnames(fatalities_gen)

##  [1] "year"         "spirits"      "unemp"        "income"       "emppop"      
##  [6] "beertax"      "baptist"      "mormon"       "drinkage"     "dry"         
## [11] "youngdrivers" "miles"        "breath"       "jail"         "service"     
## [16] "fatal"        "pop"          "milestot"     "unempus"      "emppopus"    
## [21] "gsp"          "inc_cat"      "unem_cat"

fatalities_gen

## # A tibble: 336 x 23
##     year spirits unemp income emppop beertax baptist mormon drinkage   dry
##    <dbl>   <dbl> <dbl>  <dbl>  <dbl>   <dbl>   <dbl>  <dbl>    <dbl> <dbl>
##  1  1982    1.37 14.4  10544.   50.7   1.54    30.4   0.328       19  25.0
##  2  1983    1.36 13.7  10733.   52.1   1.79    30.3   0.343       19  23.0
##  3  1984    1.32 11.1  11109.   54.2   1.71    30.3   0.359       19  24.0
##  4  1985    1.28  8.90 11333.   55.3   1.65    30.3   0.376       20  23.6
##  5  1986    1.23  9.80 11662.   56.5   1.61    30.3   0.393       21  23.5
##  6  1987    1.18  7.80 11944    57.5   1.56    30.2   0.411       21  23.8
##  7  1988    1.17  7.20 12369.   56.8   1.50    30.2   0.430       21  23.8
##  8  1982    1.97  9.90 12309.   56.9   0.215    3.96  4.92        19   0  
##  9  1983    1.90  9.10 12694.   57.6   0.206    3.89  4.83        19   0  
## 10  1984    2.14  5    13266.   60.4   0.297    3.82  4.74        19   0  
## #  with 326 more rows, and 13 more variables: youngdrivers <dbl>, miles <dbl>,
## #   breath <chr>, jail <chr>, service <chr>, fatal <dbl>, pop <dbl>,
## #   milestot <dbl>, unempus <dbl>, emppopus <dbl>, gsp <dbl>, inc_cat <chr>,
## #   unem_cat <chr>

fatalities_gen <- na.omit(fatalities_gen)
fatalities_gen

## # A tibble: 335 x 23
##     year spirits unemp income emppop beertax baptist mormon drinkage   dry
##    <dbl>   <dbl> <dbl>  <dbl>  <dbl>   <dbl>   <dbl>  <dbl>    <dbl> <dbl>
##  1  1982    1.37 14.4  10544.   50.7   1.54    30.4   0.328       19  25.0
##  2  1983    1.36 13.7  10733.   52.1   1.79    30.3   0.343       19  23.0
##  3  1984    1.32 11.1  11109.   54.2   1.71    30.3   0.359       19  24.0
##  4  1985    1.28  8.90 11333.   55.3   1.65    30.3   0.376       20  23.6
##  5  1986    1.23  9.80 11662.   56.5   1.61    30.3   0.393       21  23.5
##  6  1987    1.18  7.80 11944    57.5   1.56    30.2   0.411       21  23.8
##  7  1988    1.17  7.20 12369.   56.8   1.50    30.2   0.430       21  23.8
##  8  1982    1.97  9.90 12309.   56.9   0.215    3.96  4.92        19   0  
##  9  1983    1.90  9.10 12694.   57.6   0.206    3.89  4.83        19   0  
## 10  1984    2.14  5    13266.   60.4   0.297    3.82  4.74        19   0  
## #  with 325 more rows, and 13 more variables: youngdrivers <dbl>, miles <dbl>,
## #   breath <chr>, jail <chr>, service <chr>, fatal <dbl>, pop <dbl>,
## #   milestot <dbl>, unempus <dbl>, emppopus <dbl>, gsp <dbl>, inc_cat <chr>,
## #   unem_cat <chr>
…
colnames(fatalities_a)

##  [1] "year"         "spirits"      "unemp"        "income"       "emppop"      
##  [6] "beertax"      "baptist"      "mormon"       "drinkage"     "dry"         
## [11] "youngdrivers" "miles"        "breath"       "jail"         "service"     
## [16] "afatal"       "pop"          "milestot"     "unempus"      "emppopus"    
## [21] "gsp"          "inc_cat"      "unem_cat"

fatalities_a

## # A tibble: 336 x 23
##     year spirits unemp income emppop beertax baptist mormon drinkage   dry
##    <dbl>   <dbl> <dbl>  <dbl>  <dbl>   <dbl>   <dbl>  <dbl>    <dbl> <dbl>
##  1  1982    1.37 14.4  10544.   50.7   1.54    30.4   0.328       19  25.0
##  2  1983    1.36 13.7  10733.   52.1   1.79    30.3   0.343       19  23.0
##  3  1984    1.32 11.1  11109.   54.2   1.71    30.3   0.359       19  24.0
##  4  1985    1.28  8.90 11333.   55.3   1.65    30.3   0.376       20  23.6
##  5  1986    1.23  9.80 11662.   56.5   1.61    30.3   0.393       21  23.5
##  6  1987    1.18  7.80 11944    57.5   1.56    30.2   0.411       21  23.8
##  7  1988    1.17  7.20 12369.   56.8   1.50    30.2   0.430       21  23.8
##  8  1982    1.97  9.90 12309.   56.9   0.215    3.96  4.92        19   0  
##  9  1983    1.90  9.10 12694.   57.6   0.206    3.89  4.83        19   0  
## 10  1984    2.14  5    13266.   60.4   0.297    3.82  4.74        19   0  
## #  with 326 more rows, and 13 more variables: youngdrivers <dbl>, miles <dbl>,
## #   breath <chr>, jail <chr>, service <chr>, afatal <dbl>, pop <dbl>,
## #   milestot <dbl>, unempus <dbl>, emppopus <dbl>, gsp <dbl>, inc_cat <chr>,
## #   unem_cat <chr>

fatalities_a <- na.omit(fatalities_a)
fatalities_a

## # A tibble: 335 x 23
##     year spirits unemp income emppop beertax baptist mormon drinkage   dry
##    <dbl>   <dbl> <dbl>  <dbl>  <dbl>   <dbl>   <dbl>  <dbl>    <dbl> <dbl>
##  1  1982    1.37 14.4  10544.   50.7   1.54    30.4   0.328       19  25.0
##  2  1983    1.36 13.7  10733.   52.1   1.79    30.3   0.343       19  23.0
##  3  1984    1.32 11.1  11109.   54.2   1.71    30.3   0.359       19  24.0
##  4  1985    1.28  8.90 11333.   55.3   1.65    30.3   0.376       20  23.6
##  5  1986    1.23  9.80 11662.   56.5   1.61    30.3   0.393       21  23.5
##  6  1987    1.18  7.80 11944    57.5   1.56    30.2   0.411       21  23.8
##  7  1988    1.17  7.20 12369.   56.8   1.50    30.2   0.430       21  23.8
##  8  1982    1.97  9.90 12309.   56.9   0.215    3.96  4.92        19   0  
##  9  1983    1.90  9.10 12694.   57.6   0.206    3.89  4.83        19   0  
## 10  1984    2.14  5    13266.   60.4   0.297    3.82  4.74        19   0  
## #  with 325 more rows, and 13 more variables: youngdrivers <dbl>, miles <dbl>,
## #   breath <chr>, jail <chr>, service <chr>, afatal <dbl>, pop <dbl>,
## #   milestot <dbl>, unempus <dbl>, emppopus <dbl>, gsp <dbl>, inc_cat <chr>,
## #   unem_cat <chr>
…
colnames(fatalities_rate)

##  [1] "year"         "spirits"      "unemp"        "income"       "emppop"      
##  [6] "beertax"      "baptist"      "mormon"       "drinkage"     "dry"         
## [11] "youngdrivers" "miles"        "breath"       "jail"         "service"     
## [16] "pop"          "milestot"     "unempus"      "emppopus"     "gsp"         
## [21] "frate"        "inc_cat"      "unem_cat"

fatalities_rate

## # A tibble: 336 x 23
##     year spirits unemp income emppop beertax baptist mormon drinkage   dry
##    <dbl>   <dbl> <dbl>  <dbl>  <dbl>   <dbl>   <dbl>  <dbl>    <dbl> <dbl>
##  1  1982    1.37 14.4  10544.   50.7   1.54    30.4   0.328       19  25.0
##  2  1983    1.36 13.7  10733.   52.1   1.79    30.3   0.343       19  23.0
##  3  1984    1.32 11.1  11109.   54.2   1.71    30.3   0.359       19  24.0
##  4  1985    1.28  8.90 11333.   55.3   1.65    30.3   0.376       20  23.6
##  5  1986    1.23  9.80 11662.   56.5   1.61    30.3   0.393       21  23.5
##  6  1987    1.18  7.80 11944    57.5   1.56    30.2   0.411       21  23.8
##  7  1988    1.17  7.20 12369.   56.8   1.50    30.2   0.430       21  23.8
##  8  1982    1.97  9.90 12309.   56.9   0.215    3.96  4.92        19   0  
##  9  1983    1.90  9.10 12694.   57.6   0.206    3.89  4.83        19   0  
## 10  1984    2.14  5    13266.   60.4   0.297    3.82  4.74        19   0  
## #  with 326 more rows, and 13 more variables: youngdrivers <dbl>, miles <dbl>,
## #   breath <chr>, jail <chr>, service <chr>, pop <dbl>, milestot <dbl>,
## #   unempus <dbl>, emppopus <dbl>, gsp <dbl>, frate <dbl>, inc_cat <chr>,
## #   unem_cat <chr>

fatalities_rate <- na.omit(fatalities_rate)
fatalities_rate

## # A tibble: 335 x 23
##     year spirits unemp income emppop beertax baptist mormon drinkage   dry
##    <dbl>   <dbl> <dbl>  <dbl>  <dbl>   <dbl>   <dbl>  <dbl>    <dbl> <dbl>
##  1  1982    1.37 14.4  10544.   50.7   1.54    30.4   0.328       19  25.0
##  2  1983    1.36 13.7  10733.   52.1   1.79    30.3   0.343       19  23.0
##  3  1984    1.32 11.1  11109.   54.2   1.71    30.3   0.359       19  24.0
##  4  1985    1.28  8.90 11333.   55.3   1.65    30.3   0.376       20  23.6
##  5  1986    1.23  9.80 11662.   56.5   1.61    30.3   0.393       21  23.5
##  6  1987    1.18  7.80 11944    57.5   1.56    30.2   0.411       21  23.8
##  7  1988    1.17  7.20 12369.   56.8   1.50    30.2   0.430       21  23.8
##  8  1982    1.97  9.90 12309.   56.9   0.215    3.96  4.92        19   0  
##  9  1983    1.90  9.10 12694.   57.6   0.206    3.89  4.83        19   0  
## 10  1984    2.14  5    13266.   60.4   0.297    3.82  4.74        19   0  
## #  with 325 more rows, and 13 more variables: youngdrivers <dbl>, miles <dbl>,
## #   breath <chr>, jail <chr>, service <chr>, pop <dbl>, milestot <dbl>,
## #   unempus <dbl>, emppopus <dbl>, gsp <dbl>, frate <dbl>, inc_cat <chr>,
## #   unem_cat <chr>
…
