Project 3 Description
…
# The total number of days that each country didn't have restrictions on facial covering
# Notice that Sweden didn't have facial covering related policy for 370 days

face_covering_GDP25_countries$facial_coverings <- as.factor(face_covering_GDP25_countries$facial_coverings)

country_by_policy <- face_covering_GDP25_countries %>%
    group_by(Entity, facial_coverings) %>%
    summarise(count=n())

country_by_policy[country_by_policy$facial_coverings=="0", ]

## # A tibble: 24 x 3
## # Groups:   Entity [24]
##    Entity    facial_coverings count
##    <chr>     <fct>            <int>
##  1 Australia 0                  192
##  2 Belgium   0                  112
##  3 Brazil    0                   59
##  4 Canada    0                  108
##  5 France    0                   19
##  6 Germany   0                   89
##  7 India     0                   90
##  8 Indonesia 0                   93
##  9 Italy     0                   92
## 10 Japan     0                   58
## # ... with 14 more rows

# Not all countries have the same number of observations in the face-covering dataset

face_covering_GDP25_countries %>%
    group_by(Entity) %>%
    summarise(count=n())

## # A tibble: 25 x 2
##    Entity    count
##  * <chr>     <int>
##  1 Australia   421
##  2 Belgium     422
##  3 Brazil      389
##  4 Canada      421
##  5 China       424
##  6 France      422
##  7 Germany     422
##  8 India       418
##  9 Indonesia   417
## 10 Italy       423
## # ... with 15 more rows

# Whereas, all the countries from the covid dataset has 425 observations. 

covid_GDP25_countries %>%
    group_by(Country) %>%
    summarise(count=n())

## # A tibble: 25 x 2
##    Country   count
##  * <chr>     <int>
##  1 Australia   425
##  2 Belgium     425
##  3 Brazil      425
##  4 Canada      425
##  5 China       425
##  6 France      425
##  7 Germany     425
##  8 India       425
##  9 Indonesia   425
## 10 Italy       425
## # ... with 15 more rows
…
